<svg xmlns:xlink="http://www.w3.org/1999/xlink" xmlns="http://www.w3.org/2000/svg" viewBox="0 0 32 32" aria-hidden="true" role="presentation" focusable="false" style="display: block; height: 24px; width: 24px; fill: currentcolor;" id="drying-rack-for-clothing" width="32"  height="32" >
                    <path d="M16 2a5 5 0 0 1 1.66 9.72 1 1 0 0 0-.65.81l-.01.13v.81l13.23 9.05a3 3 0 0 1 1.3 2.28v.2a3 3 0 0 1-3 3H3.47a3 3 0 0 1-1.69-5.48L15 13.47v-.81a3 3 0 0 1 1.82-2.76l.17-.07a3 3 0 1 0-3.99-3V7h-2a5 5 0 0 1 5-5zm0 13.21L2.9 24.17A1 1 0 0 0 3.46 26h25.07a1 1 0 0 0 .57-1.82z">
                    </path>
                  </svg>