<svg xmlns:xlink="http://www.w3.org/1999/xlink" xmlns="http://www.w3.org/2000/svg" viewBox="0 0 32 32" aria-hidden="true" role="presentation" focusable="false" style="display: block; height: 24px; width: 24px; fill: currentcolor;" id="indoor-fireplace" width="32"  height="32" >
                    <path d="M31 6v2h-1v23h-6V13H8v18H2V8H1V6zm-15.37 9 .96.7c3.32 2.42 5.14 5.06 5.38 7.93l.02.28v.21l.01.14c0 3.18-2.7 5.74-6 5.74a5.9 5.9 0 0 1-5.99-5.39v-.21l-.01-.15a9.3 9.3 0 0 1 1.64-4.99l.22-.34.68-.98 1.24.79zM28 8H4v21h2V13a2 2 0 0 1 1.7-1.98l.15-.01L8 11h16a2 2 0 0 1 2 1.85V29h2zM16 25.36l-.1.09c-.61.65-.9 1.23-.9 1.72 0 .42.41.83 1 .83s1-.4 1-.83c0-.45-.24-.97-.76-1.56l-.15-.16zm.35-7.32-1.77 3.56-1.46-.93-.15.27a7.28 7.28 0 0 0-.94 2.75l-.02.29-.01.26v.12c.03.92.4 1.76 1.03 2.4.14-1.14.86-2.24 2.1-3.33l.23-.2.64-.53.64.53c1.38 1.16 2.19 2.32 2.33 3.53A3.6 3.6 0 0 0 20 24.49l.01-.22V24c-.1-1.86-1.12-3.7-3.13-5.5l-.27-.24zM31 2v2H1V2z">
                    </path>
                  </svg>