<svg xmlns:xlink="http://www.w3.org/1999/xlink" xmlns="http://www.w3.org/2000/svg" viewBox="0 0 32 32" aria-hidden="true" role="presentation" focusable="false" style="display: block; height: 24px; width: 24px; fill: currentcolor;" id="paid-parking-off-premises" width="32"  height="32" >
                    <path d="M16 1a15 15 0 1 1 0 30 15 15 0 0 1 0-30zm0 2a13 13 0 1 0 0 26 13 13 0 0 0 0-26zm2 5a5 5 0 0 1 .22 10H13v6h-2V8zm0 2h-5v6h5a3 3 0 0 0 .18-6z">
                    </path>
                  </svg>