<svg xmlns:xlink="http://www.w3.org/1999/xlink" xmlns="http://www.w3.org/2000/svg" viewBox="0 0 32 32" aria-hidden="true" role="presentation" focusable="false" style="display: block; height: 24px; width: 24px; fill: currentcolor;" id="portable-fans" width="32"  height="32" >
                    <path d="M16 2a10 10 0 0 1 1 19.95V28h6v2H9v-2h6v-6.05A10 10 0 0 1 16 2zm1.44 12.63a2.98 2.98 0 0 1-1.22.36L16 15v.01a2.51 2.51 0 0 0-2.5 2.52c0 1.17.78 2.16 1.85 2.44a7.99 7.99 0 0 0 6.96-3.05 4.61 4.61 0 0 1-4.87-2.29zM10.52 10a2.52 2.52 0 0 0-2.5 2.16l-.02.1a8 8 0 0 0 3.66 6.46 4.53 4.53 0 0 1-.16-1.19c0-1.59.82-2.99 2.05-3.8a3 3 0 0 1-.46-1l-.05-.24-.01-.12-.03-.3A2.52 2.52 0 0 0 10.52 10zm10.95 5a2.52 2.52 0 0 0 2.47-1.98 8 8 0 0 0-4.24-8.11c.2.5.3 1.05.3 1.62a4.53 4.53 0 0 1-1.7 3.54 3 3 0 0 1 .6 2.68v-.07A2.56 2.56 0 0 0 21.47 15zM16 11a1 1 0 1 0 0 2 1 1 0 0 0 0-2zm-.32-7a8 8 0 0 0-6.77 4.3l.16-.07A4.54 4.54 0 0 1 10.52 8c1.43 0 2.72.67 3.55 1.7A2.98 2.98 0 0 1 16 9a2.52 2.52 0 0 0 2-2.48 2.52 2.52 0 0 0-2.16-2.5l-.16-.01z">
                    </path>
                  </svg>