<svg xmlns:xlink="http://www.w3.org/1999/xlink" xmlns="http://www.w3.org/2000/svg" viewBox="0 0 32 32" aria-hidden="true" role="presentation" focusable="false" style="display: block; height: 24px; width: 24px; fill: currentcolor;" id="shampoo" width="32"  height="32" >
                    <path d="M20 1v2h-3v2h1a2 2 0 0 1 2 1.85V9a4 4 0 0 1 4 3.8V27a4 4 0 0 1-3.8 4H12a4 4 0 0 1-4-3.8V13a4 4 0 0 1 3.8-4h.2V7a2 2 0 0 1 1.85-2H15V3H8V1zm2 21H10v5a2 2 0 0 0 1.85 2H20a2 2 0 0 0 2-1.85V27zm0-6H10v4h12zm-2-5h-8a2 2 0 0 0-2 1.85V14h12v-1a2 2 0 0 0-2-2zm-2-4h-4v2h4z">
                    </path>
                  </svg>